[
    {
        "Storeid": "133",
        "ProfitCenter": "23",
        "SaleOrder": "200469600",
        "CustomerId": "SFQACED     ",
        "SalesForceId": "0010n000010d70IAAQ",
        "CurrentBalance": "1828.69",
        "CustomerName": "SFQA19, CEDAR                      ",
        "CustomerType": "RET",
        "Address1": "1700 BUCKHEAD COURT NE             ",
        "Address2": "                                   ",
        "City": "ATLANTA             ",
        "State": "GA",
        "Zip": "30324     ",
        "Phone1": "3032430324",
        "Phone2": "8056482946",
        "Phone3": "",
        "Email": "test@cedar.com",
        "MostRecentPurchaseDate": "6/28/2019 12:00:00 AM",
        "InvoiceNo": "200469601",
        "InvoiceDate": "20190508",
        "ItemId": "*DELIV-TAX          ",
        "ItemSequence": "20",
        "Decription1": "Delivery Fees                      ",
        "Decription2": "Delivery Fees                      ",
        "QuantitySold": "1.00",
        "RetailPrice": "84.00",
        "ExtendedCost": "0.00",
        "sls_his_slm_1": "HOU",
        "sls_his_splt_1": "50.0000",
        "sls_his_slm_2": "C79",
        "sls_his_splt_2": "50.0000",
        "sls_his_slm_3": "   ",
        "sls_his_splt_3": "0.0000",
        "sls_his_slm_4": "   ",
        "sls_his_splt_4": "0.0000",
        "TaxCode": "260",
        "sls_his_tax_amt_1": "37.51",
        "sls_his_tax_amt_2": "0.00",
        "sls_his_tax_amt_3": "0.00",
        "SalesComments1": "",
        "SalesComments2": "",
        "SaleDate": "5/8/2019 12:00:00 AM",
        "DeliveredDate": "5/8/2019 12:00:00 AM"
    },
    {
        "Storeid": "133",
        "ProfitCenter": "23",
        "SaleOrder": "200469600",
        "CustomerId": "SFQACED     ",
        "SalesForceId": "0010n000010d70IAAQ",
        "CurrentBalance": "1828.69",
        "CustomerName": "SFQA19, CEDAR                      ",
        "CustomerType": "RET",
        "Address1": "1700 BUCKHEAD COURT NE             ",
        "Address2": "                                   ",
        "City": "ATLANTA             ",
        "State": "GA",
        "Zip": "30324     ",
        "Phone1": "3032430324",
        "Phone2": "8056482946",
        "Phone3": "",
        "Email": "test@cedar.com",
        "MostRecentPurchaseDate": "6/28/2019 12:00:00 AM",
        "InvoiceNo": "200469601",
        "InvoiceDate": "20190508",
        "ItemId": "*AS IS              ",
        "ItemSequence": "30",
        "Decription1": "*** ALL SALES FINAL *** NO RETURNS ",
        "Decription2": "No Refunds, No Svc, No Exchanges   ",
        "QuantitySold": "1.00",
        "RetailPrice": "0.00",
        "ExtendedCost": "0.00",
        "sls_his_slm_1": "HOU",
        "sls_his_splt_1": "50.0000",
        "sls_his_slm_2": "C79",
        "sls_his_splt_2": "50.0000",
        "sls_his_slm_3": "   ",
        "sls_his_splt_3": "0.0000",
        "sls_his_slm_4": "   ",
        "sls_his_splt_4": "0.0000",
        "TaxCode": "260",
        "sls_his_tax_amt_1": "37.51",
        "sls_his_tax_amt_2": "0.00",
        "sls_his_tax_amt_3": "0.00",
        "SalesComments1": "",
        "SalesComments2": "",
        "SaleDate": "5/8/2019 12:00:00 AM",
        "DeliveredDate": "5/8/2019 12:00:00 AM"
    },
    {
        "Storeid": "133",
        "ProfitCenter": "23",
        "SaleOrder": "200469600",
        "CustomerId": "SFQACED     ",
        "SalesForceId": "0010n000010d70IAAQ",
        "CurrentBalance": "1828.69",
        "CustomerName": "SFQA19, CEDAR                      ",
        "CustomerType": "RET",
        "Address1": "1700 BUCKHEAD COURT NE             ",
        "Address2": "                                   ",
        "City": "ATLANTA             ",
        "State": "GA",
        "Zip": "30324     ",
        "Phone1": "3032430324",
        "Phone2": "8056482946",
        "Phone3": "",
        "Email": "test@cedar.com",
        "MostRecentPurchaseDate": "6/28/2019 12:00:00 AM",
        "InvoiceNo": "200469601",
        "InvoiceDate": "20190508",
        "ItemId": "000008670425        ",
        "ItemSequence": "40",
        "Decription1": "ASHLEY 8670425                     ",
        "Decription2": "Rocker Recliner/Jesolo/Coffee      ",
        "QuantitySold": "1.00",
        "RetailPrice": "541.19",
        "ExtendedCost": "234.51",
        "sls_his_slm_1": "HOU",
        "sls_his_splt_1": "50.0000",
        "sls_his_slm_2": "C79",
        "sls_his_splt_2": "50.0000",
        "sls_his_slm_3": "   ",
        "sls_his_splt_3": "0.0000",
        "sls_his_slm_4": "   ",
        "sls_his_splt_4": "0.0000",
        "TaxCode": "260",
        "sls_his_tax_amt_1": "37.51",
        "sls_his_tax_amt_2": "0.00",
        "sls_his_tax_amt_3": "0.00",
        "SalesComments1": "",
        "SalesComments2": "",
        "SaleDate": "5/8/2019 12:00:00 AM",
        "DeliveredDate": "5/8/2019 12:00:00 AM"
    },
    {
        "Storeid": "133",
        "ProfitCenter": "23",
        "SaleOrder": "200469600",
        "CustomerId": "SFQACED     ",
        "SalesForceId": "0010n000010d70IAAQ",
        "CurrentBalance": "1828.69",
        "CustomerName": "SFQA19, CEDAR                      ",
        "CustomerType": "RET",
        "Address1": "1700 BUCKHEAD COURT NE             ",
        "Address2": "                                   ",
        "City": "ATLANTA             ",
        "State": "GA",
        "Zip": "30324     ",
        "Phone1": "3032430324",
        "Phone2": "8056482946",
        "Phone3": "",
        "Email": "test@cedar.com",
        "MostRecentPurchaseDate": "6/28/2019 12:00:00 AM",
        "InvoiceNo": "200469600",
        "InvoiceDate": "20190508",
        "ItemId": "000004210138        ",
        "ItemSequence": "10",
        "Decription1": "ASHLEY 4210138                     ",
        "Decription2": "Sofa/Fielding/Chocolate            ",
        "QuantitySold": "1.00",
        "RetailPrice": "1099.99",
        "ExtendedCost": "449.22",
        "sls_his_slm_1": "HOU",
        "sls_his_splt_1": "50.0000",
        "sls_his_slm_2": "C79",
        "sls_his_splt_2": "50.0000",
        "sls_his_slm_3": "   ",
        "sls_his_splt_3": "0.0000",
        "sls_his_slm_4": "   ",
        "sls_his_splt_4": "0.0000",
        "TaxCode": "260",
        "sls_his_tax_amt_1": "66.00",
        "sls_his_tax_amt_2": "0.00",
        "sls_his_tax_amt_3": "0.00",
        "SalesComments1": "",
        "SalesComments2": "",
        "SaleDate": "5/8/2019 12:00:00 AM",
        "DeliveredDate": "5/8/2019 12:00:00 AM"
    }
]